{
  "jsonrpc": "2.0",
  "result": {
    "meta": {
      "totalCount": 285,
      "pageCount": 95,
      "currentPage": 1,
      "perPage": 3
    },
    "body": [
      {
        "id": 1,
        "title": "Приложение 1"
      },
      {
        "id": 2,
        "name": "Приложение 2"
      },
      {
        "id": 3,
        "name": "Приложение 3"
      },
      {
        "id": 4,
        "name": "Приложение 4"
      },
      {
        "id": 5,
        "name": "Система дистанционного обучения и тестирования"
      },
      {
        "id": 6,
        "name": "Приложение 6"
      }
    ]
  }
}